[
	{
		"method": "GET",
		"path": "/api/bar",
		"type": "static",
		"response": {
			"code": "500",
			"body": "error"
		}
	},
	{
		"method": "GET",
		"path": "/api/foo",
		"type": "static",
		"response": {
			"code": "200",
			"body": {
				"key1": "value1",
				"key2": "value2"
			}
		}
	},
	{
		"method": "GET",
		"path": "/api/{someValue}/foo",
		"type": "static",
		"response": {
			"code": "200",
			"body": {
				"key1": "value3",
				"key2": "value4"
			}
		}
	},
	{
		"method": "GET",
		"path": "/api/null",
		"type": "static",
		"response": {}
	},
	{
		"method": "GET",
		"path": "/api/script",
		"type": "script",
		"response": {
			"language": "python",
			"source": "<path_to_script>"
		}
	}
]